[
  {
    "productName": "Gabby Ottoman Chair",
    "description": "Easy to carry ottoman , ideal for casual seating and storage space provided beneath the chair pad. Available in multiple color option.",
    "itemCode": "1000003913433",
    "color": "White",
    "material": "ABS",
    "dimensions": "W 35 x L 35 x H 50",
    "price": "INR 4950"
  },
  {
    "productName": "Faith Sofa Bed",
    "description": "The sofa bed is provided with padded pillow on the top for extra comfort. The pillow top cover is removable and washable. The sofa is with click clack mechanism with 2 adjustable seats and back positions.",
    "itemCode": "144398821",
    "color": "Light Brown",
    "material": "Fabric",
    "dimensions": "W 193 x L 123 x H 42",
    "price": "INR 44950"
  },
  {
    "productName": "Croco Drawer",
    "description": "Drawers with full extension ball bearing runner for maximum accessibility. Can Fit up to 70 Inch TV and hold weight up to 100 Kg.",
    "itemCode": "126207197",
    "color": "Dark Brown",
    "material": "Medium density fibreboard",
    "dimensions": "W 58 x L 201 x H 51",
    "price": "INR 29950"
  }
]


